{
  "count": 41,
  "next": "https://api.www.documentcloud.org/api/projects/215178/documents/?cursor=cD0yMDIzLTA5LTIyKzE3JTNBMDYlM0EzNi44NTIwMjQlMkIwMCUzQTAw&expand=user%2Corganization%2Cdocument&ordering=-created_at&per_page=12",
  "previous": null,
  "results": [
    {
      "document": {
        "id": 23993226,
        "access": "public",
        "admin_noindex": false,
        "asset_url": "https://s3.documentcloud.org/",
        "canonical_url": "https://www.documentcloud.org/documents/23993226-me01a-preface-gcv",
        "created_at": "2023-09-27T18:07:12.612050Z",
        "data": { "_tag": ["gcv", "premium", "simplified chinese"] },
        "description": "",
        "edit_access": false,
        "file_hash": "de93d401206b0f8ac26ddde57dd9a91fd34888cb",
        "noindex": false,
        "language": "zho",
        "organization": 125,
        "original_extension": "pdf",
        "page_count": 12,
        "page_spec": "419.0x595.0:0-11",
        "presigned_url": "https://s3.amazonaws.com/s3.documentcloud.org/documents/23993226/me01a-preface-gcv.pdf?X-Amz-Algorithm=AWS4-HMAC-SHA256&X-Amz-Credential=AKIA4JBBEJ7KWPNZQB7I%2F20240218%2Fus-east-1%2Fs3%2Faws4_request&X-Amz-Date=20240218T162315Z&X-Amz-Expires=300&X-Amz-SignedHeaders=host&X-Amz-Signature=fe9ac20710237aa363c20f12fecc486c97dfd898fffb5db57b890b3acc69a961",
        "projects": [215178],
        "publish_at": null,
        "published_url": "",
        "related_article": "",
        "revision_control": false,
        "slug": "me01a-preface-gcv",
        "source": "",
        "status": "success",
        "title": "me01a-preface gcv",
        "updated_at": "2023-09-27T18:47:26.867455Z",
        "user": 102112
      },
      "edit_access": true
    },
    {
      "document": {
        "id": 23993225,
        "access": "public",
        "admin_noindex": false,
        "asset_url": "https://s3.documentcloud.org/",
        "canonical_url": "https://www.documentcloud.org/documents/23993225-me01a-preface-azure",
        "created_at": "2023-09-27T18:07:12.611970Z",
        "data": { "_tag": ["premium", "azure", "simplified chinese"] },
        "description": "",
        "edit_access": false,
        "file_hash": "de93d401206b0f8ac26ddde57dd9a91fd34888cb",
        "noindex": false,
        "language": "zho",
        "organization": 125,
        "original_extension": "pdf",
        "page_count": 12,
        "page_spec": "419.0x595.0:0-11",
        "presigned_url": "https://s3.amazonaws.com/s3.documentcloud.org/documents/23993225/me01a-preface-azure.pdf?X-Amz-Algorithm=AWS4-HMAC-SHA256&X-Amz-Credential=AKIA4JBBEJ7KWPNZQB7I%2F20240218%2Fus-east-1%2Fs3%2Faws4_request&X-Amz-Date=20240218T162315Z&X-Amz-Expires=300&X-Amz-SignedHeaders=host&X-Amz-Signature=bd421b32ae7645b188b3d8ee0e409ed35a0c592c26f00fc5f1eb22ba4fbe36e4",
        "projects": [215178],
        "publish_at": null,
        "published_url": "",
        "related_article": "",
        "revision_control": false,
        "slug": "me01a-preface-azure",
        "source": "",
        "status": "success",
        "title": "me01a-preface azure",
        "updated_at": "2023-09-27T18:47:33.762245Z",
        "user": 102112
      },
      "edit_access": true
    },
    {
      "document": {
        "id": 23993222,
        "access": "public",
        "admin_noindex": false,
        "asset_url": "https://s3.documentcloud.org/",
        "canonical_url": "https://www.documentcloud.org/documents/23993222-me01a-preface-tesseract",
        "created_at": "2023-09-27T18:07:12.611638Z",
        "data": { "_tag": ["tesseract", "simplified chinese", "free"] },
        "description": "",
        "edit_access": false,
        "file_hash": "de93d401206b0f8ac26ddde57dd9a91fd34888cb",
        "noindex": false,
        "language": "zho",
        "organization": 125,
        "original_extension": "pdf",
        "page_count": 12,
        "page_spec": "419.0x595.0:0-11",
        "presigned_url": "https://s3.amazonaws.com/s3.documentcloud.org/documents/23993222/me01a-preface-tesseract.pdf?X-Amz-Algorithm=AWS4-HMAC-SHA256&X-Amz-Credential=AKIA4JBBEJ7KWPNZQB7I%2F20240218%2Fus-east-1%2Fs3%2Faws4_request&X-Amz-Date=20240218T162315Z&X-Amz-Expires=300&X-Amz-SignedHeaders=host&X-Amz-Signature=007d76389aa1607d9a7a6324ca75b0f8873806a20d31403f286d5e9f7315c7c4",
        "projects": [215178],
        "publish_at": null,
        "published_url": "",
        "related_article": "",
        "revision_control": false,
        "slug": "me01a-preface-tesseract",
        "source": "",
        "status": "success",
        "title": "me01a-preface tesseract",
        "updated_at": "2023-09-27T18:47:44.786377Z",
        "user": 102112
      },
      "edit_access": true
    },
    {
      "document": {
        "id": 23990373,
        "access": "public",
        "admin_noindex": false,
        "asset_url": "https://s3.documentcloud.org/",
        "canonical_url": "https://www.documentcloud.org/documents/23990373-newspapers",
        "created_at": "2023-09-25T00:27:10.066979Z",
        "data": { "_tag": ["premium", "traditional chinese", "gcv"] },
        "description": "",
        "edit_access": false,
        "file_hash": "7aed3598201bd1f88c0b61fa8d63d0b1398e455b",
        "noindex": false,
        "language": "eng",
        "organization": 125,
        "original_extension": "pdf",
        "page_count": 10,
        "page_spec": "612.0x792.0:0-9",
        "presigned_url": "https://s3.amazonaws.com/s3.documentcloud.org/documents/23990373/newspapers.pdf?X-Amz-Algorithm=AWS4-HMAC-SHA256&X-Amz-Credential=AKIA4JBBEJ7KWPNZQB7I%2F20240218%2Fus-east-1%2Fs3%2Faws4_request&X-Amz-Date=20240218T162315Z&X-Amz-Expires=300&X-Amz-SignedHeaders=host&X-Amz-Signature=815ce7a064ece956021d22fb7475454499a82adb3adfe6b41f17509eaf2885b0",
        "projects": [215178],
        "publish_at": null,
        "published_url": "",
        "related_article": "",
        "revision_control": false,
        "slug": "newspapers",
        "source": "",
        "status": "success",
        "title": "newspapers gcv",
        "updated_at": "2023-09-28T11:04:13.657552Z",
        "user": 102112
      },
      "edit_access": true
    },
    {
      "document": {
        "id": 23990371,
        "access": "public",
        "admin_noindex": false,
        "asset_url": "https://s3.documentcloud.org/",
        "canonical_url": "https://www.documentcloud.org/documents/23990371-newspapers",
        "created_at": "2023-09-25T00:15:42.403019Z",
        "data": { "_tag": ["traditional chinese", "premium", "azure"] },
        "description": "",
        "edit_access": false,
        "file_hash": "7aed3598201bd1f88c0b61fa8d63d0b1398e455b",
        "noindex": false,
        "language": "eng",
        "organization": 125,
        "original_extension": "pdf",
        "page_count": 10,
        "page_spec": "612.0x792.0:0-9",
        "presigned_url": "https://s3.amazonaws.com/s3.documentcloud.org/documents/23990371/newspapers.pdf?X-Amz-Algorithm=AWS4-HMAC-SHA256&X-Amz-Credential=AKIA4JBBEJ7KWPNZQB7I%2F20240218%2Fus-east-1%2Fs3%2Faws4_request&X-Amz-Date=20240218T162315Z&X-Amz-Expires=300&X-Amz-SignedHeaders=host&X-Amz-Signature=328462670ff16d5069fe357f692a3044c3926bdb7537adf33505ff417867e6ce",
        "projects": [215178],
        "publish_at": null,
        "published_url": "",
        "related_article": "",
        "revision_control": false,
        "slug": "newspapers",
        "source": "",
        "status": "success",
        "title": "newspapers azure",
        "updated_at": "2023-09-28T11:04:13.659676Z",
        "user": 102112
      },
      "edit_access": true
    },
    {
      "document": {
        "id": 23990369,
        "access": "public",
        "admin_noindex": false,
        "asset_url": "https://s3.documentcloud.org/",
        "canonical_url": "https://www.documentcloud.org/documents/23990369-newspapers",
        "created_at": "2023-09-25T00:12:51.043150Z",
        "data": { "_tag": ["traditional chinese", "free", "tesseract"] },
        "description": "",
        "edit_access": false,
        "file_hash": "7aed3598201bd1f88c0b61fa8d63d0b1398e455b",
        "noindex": false,
        "language": "tra",
        "organization": 125,
        "original_extension": "pdf",
        "page_count": 10,
        "page_spec": "612.0x792.0:0-9",
        "presigned_url": "https://s3.amazonaws.com/s3.documentcloud.org/documents/23990369/newspapers.pdf?X-Amz-Algorithm=AWS4-HMAC-SHA256&X-Amz-Credential=AKIA4JBBEJ7KWPNZQB7I%2F20240218%2Fus-east-1%2Fs3%2Faws4_request&X-Amz-Date=20240218T162315Z&X-Amz-Expires=300&X-Amz-SignedHeaders=host&X-Amz-Signature=d34695c4a2a1189ce5fbb1eee1ebe4f47ad734dd5e4c29fe1591b00191f6645f",
        "projects": [215178],
        "publish_at": null,
        "published_url": "",
        "related_article": "",
        "revision_control": false,
        "slug": "newspapers",
        "source": "",
        "status": "success",
        "title": "newspapers tesseract",
        "updated_at": "2023-09-28T11:04:12.746348Z",
        "user": 102112
      },
      "edit_access": true
    },
    {
      "document": {
        "id": 23989912,
        "access": "public",
        "admin_noindex": false,
        "asset_url": "https://s3.documentcloud.org/",
        "canonical_url": "https://www.documentcloud.org/documents/23989912-receipt-2esae_commissary",
        "created_at": "2023-09-22T20:28:12.132358Z",
        "data": { "_tag": ["receipt", "premium", "gcv"] },
        "description": "",
        "edit_access": false,
        "file_hash": "dcd13333b8ddd57436c0909700f4591d253cf9af",
        "noindex": false,
        "language": "eng",
        "organization": 125,
        "original_extension": "jpg",
        "page_count": 1,
        "page_spec": "612.0x792.0:0",
        "presigned_url": "https://s3.amazonaws.com/s3.documentcloud.org/documents/23989912/original/receipt-2esae_commissary.jpg?X-Amz-Algorithm=AWS4-HMAC-SHA256&X-Amz-Credential=AKIA4JBBEJ7KWPNZQB7I%2F20240218%2Fus-east-1%2Fs3%2Faws4_request&X-Amz-Date=20240218T162315Z&X-Amz-Expires=300&X-Amz-SignedHeaders=host&X-Amz-Signature=e36351aa9b9a09dd5b621eb044c071e55d14be8254665b33a516a487b170c242",
        "projects": [215178],
        "publish_at": null,
        "published_url": "",
        "related_article": "",
        "revision_control": false,
        "slug": "receipt-2esae_commissary",
        "source": "",
        "status": "success",
        "title": "receipt-2esae_commissary gcv",
        "updated_at": "2023-09-28T10:26:50.027581Z",
        "user": 102112
      },
      "edit_access": true
    },
    {
      "document": {
        "id": 23989886,
        "access": "public",
        "admin_noindex": false,
        "asset_url": "https://s3.documentcloud.org/",
        "canonical_url": "https://www.documentcloud.org/documents/23989886-receipt-2esae_commissary-azure",
        "created_at": "2023-09-22T20:06:02.984885Z",
        "data": { "_tag": ["receipt", "premium", "azure"] },
        "description": "",
        "edit_access": false,
        "file_hash": "43eaca56977fb5ce5432d27aca08ed47903df7fd",
        "noindex": false,
        "language": "eng",
        "organization": 125,
        "original_extension": "jpg",
        "page_count": 1,
        "page_spec": "612.0x792.0:0",
        "presigned_url": "https://s3.amazonaws.com/s3.documentcloud.org/documents/23989886/original/receipt-2esae_commissary-azure.jpg?X-Amz-Algorithm=AWS4-HMAC-SHA256&X-Amz-Credential=AKIA4JBBEJ7KWPNZQB7I%2F20240218%2Fus-east-1%2Fs3%2Faws4_request&X-Amz-Date=20240218T162315Z&X-Amz-Expires=300&X-Amz-SignedHeaders=host&X-Amz-Signature=931cd8168919af80f818c60e9185922664de55bcd373da216db5282427658bd6",
        "projects": [215178],
        "publish_at": null,
        "published_url": "",
        "related_article": "",
        "revision_control": false,
        "slug": "receipt-2esae_commissary-azure",
        "source": "",
        "status": "success",
        "title": "receipt-2esae_commissary azure",
        "updated_at": "2023-09-28T10:26:50.027581Z",
        "user": 102112
      },
      "edit_access": true
    },
    {
      "document": {
        "id": 23989866,
        "access": "public",
        "admin_noindex": false,
        "asset_url": "https://s3.documentcloud.org/",
        "canonical_url": "https://www.documentcloud.org/documents/23989866-receipt-2esae_commissary",
        "created_at": "2023-09-22T19:37:02.016486Z",
        "data": { "_tag": ["free", "receipt", "doctr"] },
        "description": "",
        "edit_access": false,
        "file_hash": "609be313d5a0dca3818c6fdc12dd7d19399a14ed",
        "noindex": false,
        "language": "eng",
        "organization": 125,
        "original_extension": "jpg",
        "page_count": 1,
        "page_spec": "612.0x792.0:0",
        "presigned_url": "https://s3.amazonaws.com/s3.documentcloud.org/documents/23989866/original/receipt-2esae_commissary.jpg?X-Amz-Algorithm=AWS4-HMAC-SHA256&X-Amz-Credential=AKIA4JBBEJ7KWPNZQB7I%2F20240218%2Fus-east-1%2Fs3%2Faws4_request&X-Amz-Date=20240218T162315Z&X-Amz-Expires=300&X-Amz-SignedHeaders=host&X-Amz-Signature=4f650d7a19a029cc6c825e775d243c56828361cc29933f984b6b6b11d2061bc6",
        "projects": [215178],
        "publish_at": null,
        "published_url": "",
        "related_article": "",
        "revision_control": false,
        "slug": "receipt-2esae_commissary",
        "source": "",
        "status": "success",
        "title": "receipt-2esae_commissary doctr",
        "updated_at": "2023-09-28T10:26:50.027581Z",
        "user": 102112
      },
      "edit_access": true
    },
    {
      "document": {
        "id": 23989861,
        "access": "public",
        "admin_noindex": false,
        "asset_url": "https://s3.documentcloud.org/",
        "canonical_url": "https://www.documentcloud.org/documents/23989861-receipt-2esae_commissary",
        "created_at": "2023-09-22T19:31:05.038466Z",
        "data": { "_tag": ["textract", "premium", "receipt"] },
        "description": "",
        "edit_access": false,
        "file_hash": "2b0dc658d8f23830f7bf9c897e0ec3a3766f2e05",
        "noindex": false,
        "language": "eng",
        "organization": 125,
        "original_extension": "jpg",
        "page_count": 1,
        "page_spec": "612.0x792.0:0",
        "presigned_url": "https://s3.amazonaws.com/s3.documentcloud.org/documents/23989861/original/receipt-2esae_commissary.jpg?X-Amz-Algorithm=AWS4-HMAC-SHA256&X-Amz-Credential=AKIA4JBBEJ7KWPNZQB7I%2F20240218%2Fus-east-1%2Fs3%2Faws4_request&X-Amz-Date=20240218T162315Z&X-Amz-Expires=300&X-Amz-SignedHeaders=host&X-Amz-Signature=8a78daf5304c7c3e682f9b4f6847218a71f4da58191e6ad0f57ece0960ed4229",
        "projects": [215178],
        "publish_at": null,
        "published_url": "",
        "related_article": "",
        "revision_control": false,
        "slug": "receipt-2esae_commissary",
        "source": "",
        "status": "success",
        "title": "receipt-2esae_commissary textract",
        "updated_at": "2023-09-28T10:26:50.027581Z",
        "user": 102112
      },
      "edit_access": true
    },
    {
      "document": {
        "id": 23989859,
        "access": "public",
        "admin_noindex": false,
        "asset_url": "https://s3.documentcloud.org/",
        "canonical_url": "https://www.documentcloud.org/documents/23989859-receipt-2esae_commissary",
        "created_at": "2023-09-22T19:24:01.191409Z",
        "data": { "_tag": ["tesseract", "free", "receipt"] },
        "description": "",
        "edit_access": false,
        "file_hash": "3a2ed3f7bb4b03bfd0e573abc76807d9a3826770",
        "noindex": false,
        "language": "eng",
        "organization": 125,
        "original_extension": "jpg",
        "page_count": 1,
        "page_spec": "612.0x792.0:0",
        "presigned_url": "https://s3.amazonaws.com/s3.documentcloud.org/documents/23989859/original/receipt-2esae_commissary.jpg?X-Amz-Algorithm=AWS4-HMAC-SHA256&X-Amz-Credential=AKIA4JBBEJ7KWPNZQB7I%2F20240218%2Fus-east-1%2Fs3%2Faws4_request&X-Amz-Date=20240218T162315Z&X-Amz-Expires=300&X-Amz-SignedHeaders=host&X-Amz-Signature=391dfed18a57f9594668bbec0d7d855b120cab46aaaf1937ed76018f79a2ab34",
        "projects": [215178],
        "publish_at": null,
        "published_url": "",
        "related_article": "",
        "revision_control": false,
        "slug": "receipt-2esae_commissary",
        "source": "",
        "status": "success",
        "title": "receipt-2esae_commissary tesseract",
        "updated_at": "2023-09-28T10:26:50.027581Z",
        "user": 102112
      },
      "edit_access": true
    },
    {
      "document": {
        "id": 23989721,
        "access": "public",
        "admin_noindex": false,
        "asset_url": "https://s3.documentcloud.org/",
        "canonical_url": "https://www.documentcloud.org/documents/23989721-carter-page-release-9-november-2018-doctr",
        "created_at": "2023-09-22T17:06:36.852024Z",
        "data": { "_tag": ["heavily redacted"] },
        "description": "",
        "edit_access": false,
        "file_hash": "28664d17572724180f12abd932ba3d5085d599e4",
        "noindex": false,
        "language": "eng",
        "organization": 125,
        "original_extension": "pdf",
        "page_count": 84,
        "page_spec": "611.280029296875x790.9200439453125:0-83",
        "presigned_url": "https://s3.amazonaws.com/s3.documentcloud.org/documents/23989721/carter-page-release-9-november-2018-doctr.pdf?X-Amz-Algorithm=AWS4-HMAC-SHA256&X-Amz-Credential=AKIA4JBBEJ7KWPNZQB7I%2F20240218%2Fus-east-1%2Fs3%2Faws4_request&X-Amz-Date=20240218T162315Z&X-Amz-Expires=300&X-Amz-SignedHeaders=host&X-Amz-Signature=1f0264c2471a83100dced780bd23d68534d1e61a3d479e7590d3428f82c66466",
        "projects": [215178],
        "publish_at": null,
        "published_url": "",
        "related_article": "",
        "revision_control": false,
        "slug": "carter-page-release-9-november-2018-doctr",
        "source": "",
        "status": "success",
        "title": "Carter-Page-release-9-November-2018 doctr",
        "updated_at": "2023-09-28T10:26:50.027581Z",
        "user": 102112
      },
      "edit_access": true
    }
  ]
}
