{
  "count": 41,
  "next": "https://api.www.documentcloud.org/api/projects/215178/documents/?cursor=cD0yMDIzLTA5LTIyKzE2JTNBMDElM0E1Ny4wODkyODAlMkIwMCUzQTAw",
  "previous": null,
  "results": [
    { "document": 23993226, "edit_access": true },
    { "document": 23993225, "edit_access": true },
    { "document": 23993222, "edit_access": true },
    { "document": 23990373, "edit_access": true },
    { "document": 23990371, "edit_access": true },
    { "document": 23990369, "edit_access": true },
    { "document": 23989912, "edit_access": true },
    { "document": 23989886, "edit_access": true },
    { "document": 23989866, "edit_access": true },
    { "document": 23989861, "edit_access": true },
    { "document": 23989859, "edit_access": true },
    { "document": 23989721, "edit_access": true },
    { "document": 23989720, "edit_access": true },
    { "document": 23989717, "edit_access": true },
    { "document": 23989698, "edit_access": true },
    { "document": 23989672, "edit_access": true },
    { "document": 23989668, "edit_access": true },
    { "document": 23989667, "edit_access": true },
    { "document": 23989666, "edit_access": true },
    { "document": 23989665, "edit_access": true },
    { "document": 23989662, "edit_access": true },
    { "document": 23989659, "edit_access": true },
    { "document": 23989652, "edit_access": true },
    { "document": 23989642, "edit_access": true },
    { "document": 23989639, "edit_access": true }
  ]
}
