{
  "count": 41,
  "next": "https://api.www.documentcloud.org/api/projects/215178/documents/?cursor=cD0yMDIzLTA5LTIyKzE2JTNBMDklM0EzMC43NDE3OTYlMkIwMCUzQTAw&expand=user%2Corganization%2Cdocument&ordering=-created_at&per_page=12",
  "previous": "https://api.www.documentcloud.org/api/projects/215178/documents/?cursor=cj0xJnA9MjAyMy0wOS0yMisxNyUzQTAzJTNBMjIuMTUxNzI5JTJCMDAlM0EwMA%3D%3D&expand=user%2Corganization%2Cdocument&ordering=-created_at&per_page=12",
  "results": [
    {
      "document": {
        "id": 23989720,
        "access": "public",
        "admin_noindex": false,
        "asset_url": "https://s3.documentcloud.org/",
        "canonical_url": "https://www.documentcloud.org/documents/23989720-carter-page-release-9-november-2018",
        "created_at": "2023-09-22T17:03:22.151729Z",
        "data": { "_tag": ["heavily redacted"] },
        "description": "",
        "edit_access": false,
        "file_hash": "28664d17572724180f12abd932ba3d5085d599e4",
        "noindex": false,
        "language": "eng",
        "organization": 125,
        "original_extension": "pdf",
        "page_count": 84,
        "page_spec": "611.280029296875x790.9200439453125:0-83",
        "presigned_url": "https://s3.amazonaws.com/s3.documentcloud.org/documents/23989720/carter-page-release-9-november-2018.pdf?X-Amz-Algorithm=AWS4-HMAC-SHA256&X-Amz-Credential=AKIA4JBBEJ7KWPNZQB7I%2F20240220%2Fus-east-1%2Fs3%2Faws4_request&X-Amz-Date=20240220T150630Z&X-Amz-Expires=300&X-Amz-SignedHeaders=host&X-Amz-Signature=bd15575c75c4c516d4d6e6bb9eeb8cdb0aa955fc00a28a8d59e11ff1f4417324",
        "projects": [215178],
        "publish_at": null,
        "published_url": "",
        "related_article": "",
        "revision_control": false,
        "slug": "carter-page-release-9-november-2018",
        "source": "",
        "status": "success",
        "title": "Carter-Page-release-9-November-2018 gcv failed- 360 second timeout",
        "updated_at": "2023-09-28T10:26:50.027581Z",
        "user": 102112
      },
      "edit_access": true
    },
    {
      "document": {
        "id": 23989717,
        "access": "public",
        "admin_noindex": false,
        "asset_url": "https://s3.documentcloud.org/",
        "canonical_url": "https://www.documentcloud.org/documents/23989717-carter-page-release-9-november-2018",
        "created_at": "2023-09-22T16:58:36.458090Z",
        "data": { "_tag": ["heavily redacted"] },
        "description": "",
        "edit_access": false,
        "file_hash": "28664d17572724180f12abd932ba3d5085d599e4",
        "noindex": false,
        "language": "eng",
        "organization": 125,
        "original_extension": "pdf",
        "page_count": 84,
        "page_spec": "611.280029296875x790.9200439453125:0-83",
        "presigned_url": "https://s3.amazonaws.com/s3.documentcloud.org/documents/23989717/carter-page-release-9-november-2018.pdf?X-Amz-Algorithm=AWS4-HMAC-SHA256&X-Amz-Credential=AKIA4JBBEJ7KWPNZQB7I%2F20240220%2Fus-east-1%2Fs3%2Faws4_request&X-Amz-Date=20240220T150630Z&X-Amz-Expires=300&X-Amz-SignedHeaders=host&X-Amz-Signature=3f84e7e2190e0aa65149a8686d37a431238da746a6a5564ca22c59b41b96e848",
        "projects": [215178],
        "publish_at": null,
        "published_url": "",
        "related_article": "",
        "revision_control": false,
        "slug": "carter-page-release-9-november-2018",
        "source": "",
        "status": "success",
        "title": "Carter-Page-release-9-November-2018 azure",
        "updated_at": "2023-09-28T10:26:50.027581Z",
        "user": 102112
      },
      "edit_access": true
    },
    {
      "document": {
        "id": 23989698,
        "access": "public",
        "admin_noindex": false,
        "asset_url": "https://s3.documentcloud.org/",
        "canonical_url": "https://www.documentcloud.org/documents/23989698-carter-page-release-9-november-2018",
        "created_at": "2023-09-22T16:51:21.824121Z",
        "data": { "_tag": ["heavily redacted"] },
        "description": "",
        "edit_access": false,
        "file_hash": "28664d17572724180f12abd932ba3d5085d599e4",
        "noindex": false,
        "language": "eng",
        "organization": 125,
        "original_extension": "pdf",
        "page_count": 84,
        "page_spec": "611.280029296875x790.9200439453125:0-83",
        "presigned_url": "https://s3.amazonaws.com/s3.documentcloud.org/documents/23989698/carter-page-release-9-november-2018.pdf?X-Amz-Algorithm=AWS4-HMAC-SHA256&X-Amz-Credential=AKIA4JBBEJ7KWPNZQB7I%2F20240220%2Fus-east-1%2Fs3%2Faws4_request&X-Amz-Date=20240220T150630Z&X-Amz-Expires=300&X-Amz-SignedHeaders=host&X-Amz-Signature=e5cfbacaa1a8830ebb58573531cd4ef306a0c125c508df08a7d336e73c381425",
        "projects": [215178],
        "publish_at": null,
        "published_url": "",
        "related_article": "",
        "revision_control": false,
        "slug": "carter-page-release-9-november-2018",
        "source": "",
        "status": "success",
        "title": "Carter-Page-release-9-November-2018 textract",
        "updated_at": "2023-09-28T10:26:50.027581Z",
        "user": 102112
      },
      "edit_access": true
    },
    {
      "document": {
        "id": 23989672,
        "access": "public",
        "admin_noindex": false,
        "asset_url": "https://s3.documentcloud.org/",
        "canonical_url": "https://www.documentcloud.org/documents/23989672-carter-page-release-9-november-2018",
        "created_at": "2023-09-22T16:37:35.060709Z",
        "data": { "_tag": ["heavily redacted"] },
        "description": "",
        "edit_access": false,
        "file_hash": "28664d17572724180f12abd932ba3d5085d599e4",
        "noindex": false,
        "language": "eng",
        "organization": 125,
        "original_extension": "pdf",
        "page_count": 84,
        "page_spec": "611.280029296875x790.9200439453125:0-83",
        "presigned_url": "https://s3.amazonaws.com/s3.documentcloud.org/documents/23989672/carter-page-release-9-november-2018.pdf?X-Amz-Algorithm=AWS4-HMAC-SHA256&X-Amz-Credential=AKIA4JBBEJ7KWPNZQB7I%2F20240220%2Fus-east-1%2Fs3%2Faws4_request&X-Amz-Date=20240220T150630Z&X-Amz-Expires=300&X-Amz-SignedHeaders=host&X-Amz-Signature=8bf24cea9209108387af3bd2a9b54df4adedcff457f75e2813738342dac5522c",
        "projects": [215178],
        "publish_at": null,
        "published_url": "",
        "related_article": "",
        "revision_control": false,
        "slug": "carter-page-release-9-november-2018",
        "source": "",
        "status": "success",
        "title": "Carter-Page-release-9-November-2018 tesseract",
        "updated_at": "2023-09-28T10:26:50.027581Z",
        "user": 102112
      },
      "edit_access": true
    },
    {
      "document": {
        "id": 23989668,
        "access": "public",
        "admin_noindex": false,
        "asset_url": "https://s3.documentcloud.org/",
        "canonical_url": "https://www.documentcloud.org/documents/23989668-historical-executive_order_9066-japanese_internment",
        "created_at": "2023-09-22T16:30:23.506828Z",
        "data": { "_tag": ["gcv", "premium", "historical"] },
        "description": "",
        "edit_access": false,
        "file_hash": "106329f213de0efc4570125a59691217794a14e7",
        "noindex": false,
        "language": "eng",
        "organization": 125,
        "original_extension": "pdf",
        "page_count": 1,
        "page_spec": "543.5294189453125x843.5294189453125:0",
        "presigned_url": "https://s3.amazonaws.com/s3.documentcloud.org/documents/23989668/historical-executive_order_9066-japanese_internment.pdf?X-Amz-Algorithm=AWS4-HMAC-SHA256&X-Amz-Credential=AKIA4JBBEJ7KWPNZQB7I%2F20240220%2Fus-east-1%2Fs3%2Faws4_request&X-Amz-Date=20240220T150630Z&X-Amz-Expires=300&X-Amz-SignedHeaders=host&X-Amz-Signature=0ed8ef53e829e43dd29ba39f0367b43c0737344fbd8cb34f481b1a65fc7bf0ec",
        "projects": [215178],
        "publish_at": null,
        "published_url": "",
        "related_article": "",
        "revision_control": false,
        "slug": "historical-executive_order_9066-japanese_internment",
        "source": "",
        "status": "success",
        "title": "historical-executive_order_9066-japanese_internment gcv",
        "updated_at": "2023-09-28T10:26:50.027581Z",
        "user": 102112
      },
      "edit_access": true
    },
    {
      "document": {
        "id": 23989667,
        "access": "public",
        "admin_noindex": false,
        "asset_url": "https://s3.documentcloud.org/",
        "canonical_url": "https://www.documentcloud.org/documents/23989667-historical-executive_order_9066-japanese_internment",
        "created_at": "2023-09-22T16:30:10.675795Z",
        "data": { "_tag": ["premium", "azure", "historical"] },
        "description": "",
        "edit_access": false,
        "file_hash": "106329f213de0efc4570125a59691217794a14e7",
        "noindex": false,
        "language": "eng",
        "organization": 125,
        "original_extension": "pdf",
        "page_count": 1,
        "page_spec": "543.5294189453125x843.5294189453125:0",
        "presigned_url": "https://s3.amazonaws.com/s3.documentcloud.org/documents/23989667/historical-executive_order_9066-japanese_internment.pdf?X-Amz-Algorithm=AWS4-HMAC-SHA256&X-Amz-Credential=AKIA4JBBEJ7KWPNZQB7I%2F20240220%2Fus-east-1%2Fs3%2Faws4_request&X-Amz-Date=20240220T150630Z&X-Amz-Expires=300&X-Amz-SignedHeaders=host&X-Amz-Signature=93f54d59949513dc39da0c0195363f43ee769b4aafb3dbee8203abf3b6f34970",
        "projects": [215178],
        "publish_at": null,
        "published_url": "",
        "related_article": "",
        "revision_control": false,
        "slug": "historical-executive_order_9066-japanese_internment",
        "source": "",
        "status": "success",
        "title": "historical-executive_order_9066-japanese_internment azure",
        "updated_at": "2023-09-28T10:26:50.027581Z",
        "user": 102112
      },
      "edit_access": true
    },
    {
      "document": {
        "id": 23989666,
        "access": "public",
        "admin_noindex": false,
        "asset_url": "https://s3.documentcloud.org/",
        "canonical_url": "https://www.documentcloud.org/documents/23989666-historical-executive_order_9066-japanese_internment",
        "created_at": "2023-09-22T16:30:03.059135Z",
        "data": { "_tag": ["doctr", "free", "historical"] },
        "description": "",
        "edit_access": false,
        "file_hash": "106329f213de0efc4570125a59691217794a14e7",
        "noindex": false,
        "language": "eng",
        "organization": 125,
        "original_extension": "pdf",
        "page_count": 1,
        "page_spec": "543.5294189453125x843.5294189453125:0",
        "presigned_url": "https://s3.amazonaws.com/s3.documentcloud.org/documents/23989666/historical-executive_order_9066-japanese_internment.pdf?X-Amz-Algorithm=AWS4-HMAC-SHA256&X-Amz-Credential=AKIA4JBBEJ7KWPNZQB7I%2F20240220%2Fus-east-1%2Fs3%2Faws4_request&X-Amz-Date=20240220T150630Z&X-Amz-Expires=300&X-Amz-SignedHeaders=host&X-Amz-Signature=e35334c778684b7caefdbc4c29a0e50fa9ad157fa7d126189748be8428424e42",
        "projects": [215178],
        "publish_at": null,
        "published_url": "",
        "related_article": "",
        "revision_control": false,
        "slug": "historical-executive_order_9066-japanese_internment",
        "source": "",
        "status": "success",
        "title": "historical-executive_order_9066-japanese_internment doctr",
        "updated_at": "2023-09-28T10:26:50.027581Z",
        "user": 102112
      },
      "edit_access": true
    },
    {
      "document": {
        "id": 23989665,
        "access": "public",
        "admin_noindex": false,
        "asset_url": "https://s3.documentcloud.org/",
        "canonical_url": "https://www.documentcloud.org/documents/23989665-historical-executive_order_9066-japanese_internment",
        "created_at": "2023-09-22T16:29:52.809348Z",
        "data": { "_tag": ["textract", "premium", "historical"] },
        "description": "",
        "edit_access": false,
        "file_hash": "106329f213de0efc4570125a59691217794a14e7",
        "noindex": false,
        "language": "eng",
        "organization": 125,
        "original_extension": "pdf",
        "page_count": 1,
        "page_spec": "543.5294189453125x843.5294189453125:0",
        "presigned_url": "https://s3.amazonaws.com/s3.documentcloud.org/documents/23989665/historical-executive_order_9066-japanese_internment.pdf?X-Amz-Algorithm=AWS4-HMAC-SHA256&X-Amz-Credential=AKIA4JBBEJ7KWPNZQB7I%2F20240220%2Fus-east-1%2Fs3%2Faws4_request&X-Amz-Date=20240220T150630Z&X-Amz-Expires=300&X-Amz-SignedHeaders=host&X-Amz-Signature=9a5a6d276d128e6f870eb22949e28b35291b1998be66d024316febfc0391491f",
        "projects": [215178],
        "publish_at": null,
        "published_url": "",
        "related_article": "",
        "revision_control": false,
        "slug": "historical-executive_order_9066-japanese_internment",
        "source": "",
        "status": "success",
        "title": "historical-executive_order_9066-japanese_internment textract",
        "updated_at": "2023-09-28T10:26:50.027581Z",
        "user": 102112
      },
      "edit_access": true
    },
    {
      "document": {
        "id": 23989662,
        "access": "public",
        "admin_noindex": false,
        "asset_url": "https://s3.documentcloud.org/",
        "canonical_url": "https://www.documentcloud.org/documents/23989662-historical-executive_order_9066-japanese_internment",
        "created_at": "2023-09-22T16:27:18.031707Z",
        "data": { "_tag": ["free", "historical", "tesseract"] },
        "description": "",
        "edit_access": false,
        "file_hash": "106329f213de0efc4570125a59691217794a14e7",
        "noindex": false,
        "language": "eng",
        "organization": 125,
        "original_extension": "pdf",
        "page_count": 1,
        "page_spec": "543.5294189453125x843.5294189453125:0",
        "presigned_url": "https://s3.amazonaws.com/s3.documentcloud.org/documents/23989662/historical-executive_order_9066-japanese_internment.pdf?X-Amz-Algorithm=AWS4-HMAC-SHA256&X-Amz-Credential=AKIA4JBBEJ7KWPNZQB7I%2F20240220%2Fus-east-1%2Fs3%2Faws4_request&X-Amz-Date=20240220T150630Z&X-Amz-Expires=300&X-Amz-SignedHeaders=host&X-Amz-Signature=a0aa24cded2c5673288f6ec5aa4e423b2e35a6386c4fe920be1a713db60c85bc",
        "projects": [215178],
        "publish_at": null,
        "published_url": "",
        "related_article": "",
        "revision_control": false,
        "slug": "historical-executive_order_9066-japanese_internment",
        "source": "",
        "status": "success",
        "title": "historical-executive_order_9066-japanese_internment tesseract",
        "updated_at": "2023-09-28T10:26:50.027581Z",
        "user": 102112
      },
      "edit_access": true
    },
    {
      "document": {
        "id": 23989659,
        "access": "public",
        "admin_noindex": false,
        "asset_url": "https://s3.documentcloud.org/",
        "canonical_url": "https://www.documentcloud.org/documents/23989659-damaged-yanukovych-leaks",
        "created_at": "2023-09-22T16:17:52.586066Z",
        "data": { "_tag": ["premium", "damaged", "gcv"] },
        "description": "",
        "edit_access": false,
        "file_hash": "090896b2ea6174a7e414309a18e292528b7afe77",
        "noindex": false,
        "language": "eng",
        "organization": 125,
        "original_extension": "jpg",
        "page_count": 1,
        "page_spec": "612.0x792.0:0",
        "presigned_url": "https://s3.amazonaws.com/s3.documentcloud.org/documents/23989659/original/damaged-yanukovych-leaks.jpg?X-Amz-Algorithm=AWS4-HMAC-SHA256&X-Amz-Credential=AKIA4JBBEJ7KWPNZQB7I%2F20240220%2Fus-east-1%2Fs3%2Faws4_request&X-Amz-Date=20240220T150630Z&X-Amz-Expires=300&X-Amz-SignedHeaders=host&X-Amz-Signature=09355e3fa7582b1d8144dfb90351c9be2176f3cecf2c8d8bcb97307f9290926d",
        "projects": [215178],
        "publish_at": null,
        "published_url": "",
        "related_article": "",
        "revision_control": false,
        "slug": "damaged-yanukovych-leaks",
        "source": "",
        "status": "success",
        "title": "damaged-yanukovych-leaks gcv",
        "updated_at": "2023-09-28T10:27:12.334988Z",
        "user": 102112
      },
      "edit_access": true
    },
    {
      "document": {
        "id": 23989652,
        "access": "public",
        "admin_noindex": false,
        "asset_url": "https://s3.documentcloud.org/",
        "canonical_url": "https://www.documentcloud.org/documents/23989652-damaged-yanukovych-leaks",
        "created_at": "2023-09-22T16:13:26.424691Z",
        "data": { "_tag": ["textract", "premium", "damaged"] },
        "description": "",
        "edit_access": false,
        "file_hash": "1cf1e1ca3bd33ea432128bc70935bef2a6a4ad0a",
        "noindex": false,
        "language": "eng",
        "organization": 125,
        "original_extension": "jpg",
        "page_count": 1,
        "page_spec": "612.0x792.0:0",
        "presigned_url": "https://s3.amazonaws.com/s3.documentcloud.org/documents/23989652/original/damaged-yanukovych-leaks.jpg?X-Amz-Algorithm=AWS4-HMAC-SHA256&X-Amz-Credential=AKIA4JBBEJ7KWPNZQB7I%2F20240220%2Fus-east-1%2Fs3%2Faws4_request&X-Amz-Date=20240220T150630Z&X-Amz-Expires=300&X-Amz-SignedHeaders=host&X-Amz-Signature=fd67fed936132c4cb94d04ef3e55cc1968609dd7570dc5aec04bba77e8b8840a",
        "projects": [215178],
        "publish_at": null,
        "published_url": "",
        "related_article": "",
        "revision_control": false,
        "slug": "damaged-yanukovych-leaks",
        "source": "",
        "status": "success",
        "title": "damaged-yanukovych-leaks textract",
        "updated_at": "2023-09-28T10:27:12.334988Z",
        "user": 102112
      },
      "edit_access": true
    },
    {
      "document": {
        "id": 23989642,
        "access": "public",
        "admin_noindex": false,
        "asset_url": "https://s3.documentcloud.org/",
        "canonical_url": "https://www.documentcloud.org/documents/23989642-damaged-yanukovych-leaks",
        "created_at": "2023-09-22T16:09:30.741796Z",
        "data": { "_tag": ["free", "damaged", "doctr"] },
        "description": "",
        "edit_access": false,
        "file_hash": "cecc24daf99dc7236e344e265ffff146a501e39d",
        "noindex": false,
        "language": "ukr",
        "organization": 125,
        "original_extension": "jpg",
        "page_count": 1,
        "page_spec": "612.0x792.0:0",
        "presigned_url": "https://s3.amazonaws.com/s3.documentcloud.org/documents/23989642/original/damaged-yanukovych-leaks.jpg?X-Amz-Algorithm=AWS4-HMAC-SHA256&X-Amz-Credential=AKIA4JBBEJ7KWPNZQB7I%2F20240220%2Fus-east-1%2Fs3%2Faws4_request&X-Amz-Date=20240220T150630Z&X-Amz-Expires=300&X-Amz-SignedHeaders=host&X-Amz-Signature=f09208e0ecf2e20748f3987a11611e5dc971d2566b0bcf05bae3f8bf98097df8",
        "projects": [215178],
        "publish_at": null,
        "published_url": "",
        "related_article": "",
        "revision_control": false,
        "slug": "damaged-yanukovych-leaks",
        "source": "",
        "status": "success",
        "title": "damaged-yanukovych-leaks doctr",
        "updated_at": "2023-09-28T10:27:12.334988Z",
        "user": 102112
      },
      "edit_access": true
    }
  ]
}
